Phase2/DataMem_tb.vcd
$date
	Wed Feb 18 17:14:06 2026
$end
$version
	Icarus Verilog
$end
$timescale
	1ps
$end
$scope module datamem_tb $end
$var wire 64 ! read_data [63:0] $end
$var reg 1 " MemRead $end
$var reg 1 # MemWrite $end
$var reg 64 $ address [63:0] $end
$var reg 1 % clk $end
$var reg 1 & reset $end
$var reg 64 ' write_data [63:0] $end
$var integer 32 ( fail [31:0] $end
$var integer 32 ) pass [31:0] $end
$scope module dut $end
$var wire 1 " MemRead $end
$var wire 1 # MemWrite $end
$var wire 64 * address [63:0] $end
$var wire 1 % clk $end
$var wire 1 & reset $end
$var wire 64 + write_data [63:0] $end
$var wire 64 , read_data [63:0] $end
$var integer 32 - i [31:0] $end
$upscope $end
$scope task check $end
$var reg 64 . exp [63:0] $end
$upscope $end
$scope task read_mem $end
$var reg 64 / addr [63:0] $end
$upscope $end
$scope task write_mem $end
$var reg 64 0 addr [63:0] $end
$var reg 64 1 data [63:0] $end
$upscope $end
$upscope $end
$enddefinitions $end
$comment Show the parameter values. $end
$dumpall
$end
#0
$dumpvars
bx 1
bx 0
bx /
bx .
bx -
b0 ,
b0 +
b0 *
b0 )
b0 (
b0 '
1&
0%
b0 $
0#
0"
b0 !
$end
#5000
b10000000000 -
1%
#10000
0%
#15000
b0 .
1"
b0 /
0&
b10000000000 -
1%
#16000
b1000000000 $
b1000000000 *
b1000000000 /
b1 )
#17000
0"
1#
b1111 '
b1111 +
b0 $
b0 *
b1111 1
b0 0
b10 )
#20000
0%
#25000
b1111 .
1"
b0 /
0#
1%
#26000
0"
1#
b100000010000000110000010000000101000001100000011100001000 '
b100000010000000110000010000000101000001100000011100001000 +
b10000 $
b10000 *
b100000010000000110000010000000101000001100000011100001000 1
b10000 0
b1 (
#30000
0%
#35000
b100000010000000110000010000000101000001100000011100001000 .
1"
b10000 /
0#
1%
#36000
b1000000011000001000000010100000110000001110000100000000000 .
b10001 $
b10001 *
b10001 /
b10 (
#37000
0"
1#
b1010101010101010101010101010101010101010101010101010101010101010 '
b1010101010101010101010101010101010101010101010101010101010101010 +
b11001000 $
b11001000 *
b1010101010101010101010101010101010101010101010101010101010101010 1
b11001000 0
b11 (
#40000
0%
#45000
b101010101010101010101010101010101010101010101010101010101010101 '
b101010101010101010101010101010101010101010101010101010101010101 +
b101010101010101010101010101010101010101010101010101010101010101 1
1#
1%
#50000
0%
#55000
b101010101010101010101010101010101010101010101010101010101010101 .
1"
b11001000 /
0#
1%
#56000
b0 .
0"
b100 (
#57000
1#
b1100101011111110101110101011111011011110101011011011111011101111 '
b1100101011111110101110101011111011011110101011011011111011101111 +
b1111111000 $
b1111111000 *
b1100101011111110101110101011111011011110101011011011111011101111 1
b1111111000 0
b11 )
#60000
0%
#65000
b1100101011111110101110101011111011011110101011011011111011101111 .
1"
b1111111000 /
0#
1%
#66000
b0 !
b0 ,
0"
1#
b1111111111111111111111111111111111111111111111111111111111111111 '
b1111111111111111111111111111111111111111111111111111111111111111 +
b1111111001 $
b1111111001 *
b1111111111111111111111111111111111111111111111111111111111111111 1
b1111111001 0
b101 (
#70000
0%
#75000
b0 .
1"
b1111111001 /
0#
1%
#76000
b100 )
