Phase2/Pc_tb.vcd
$date
	Sun Feb 22 14:05:09 2026
$end
$version
	Icarus Verilog
$end
$timescale
	1ps
$end
$scope module pc_tb $end
$var wire 64 ! pc_out [63:0] $end
$var reg 1 " clk $end
$var reg 64 # pc_in [63:0] $end
$var reg 1 $ reset $end
$scope module uut $end
$var wire 1 " clk $end
$var wire 64 % pc_in [63:0] $end
$var wire 64 & pc_out [63:0] $end
$var wire 1 $ reset $end
$var reg 64 ' pc_reg [63:0] $end
$upscope $end
$upscope $end
$enddefinitions $end
$comment Show the parameter values. $end
$dumpall
$end
#0
$dumpvars
b0 '
b0 &
b0 %
1$
b0 #
0"
b0 !
$end
#5000
1"
#10000
0"
b100 #
b100 %
0$
#15000
b100 !
b100 &
b100 '
1"
#20000
0"
b1000 #
b1000 %
#25000
b1000 !
b1000 &
b1000 '
1"
#30000
0"
b1100 #
b1100 %
#35000
b1100 !
b1100 &
b1100 '
1"
#40000
0"
b101000 #
b101000 %
#45000
b101000 !
b101000 &
b101000 '
1"
#50000
0"
b101100 #
b101100 %
#55000
b101100 !
b101100 &
b101100 '
1"
#60000
b0 !
b0 &
b0 '
0"
1$
#65000
1"
#70000
0"
b100 #
b100 %
0$
#75000
b100 !
b100 &
b100 '
1"
