Phase-1/Immediate_gen_tb.vcd
$date
	Sun Feb 22 14:32:07 2026
$end
$version
	Icarus Verilog
$end
$timescale
	1ps
$end
$scope module Immediate_gen_tb $end
$var wire 64 ! immediate_val [63:0] $end
$var reg 32 " instr [31:0] $end
$scope module uut $end
$var wire 32 # instr [31:0] $end
$var parameter 7 $ B_TYPE $end
$var parameter 7 % I_TYPE_ALU $end
$var parameter 7 & I_TYPE_LD $end
$var parameter 7 ' S_TYPE $end
$var reg 64 ( immediate_val [63:0] $end
$upscope $end
$upscope $end
$enddefinitions $end
$comment Show the parameter values. $end
$dumpall
b100011 '
b11 &
b10011 %
b1100011 $
$end
#0
$dumpvars
b11111111111 (
b1111111111100000000000010010011 #
b1111111111100000000000010010011 "
b11111111111 !
$end
#1000
b1111111111111111111111111111111111111111111111111111100000000000 !
b1111111111111111111111111111111111111111111111111111100000000000 (
b10000000000000000000000010010011 "
b10000000000000000000000010010011 #
#2000
b11111111111 !
b11111111111 (
b1111110000100101011111110100011 "
b1111110000100101011111110100011 #
#3000
b1111111111111111111111111111111111111111111111111111100000000000 !
b1111111111111111111111111111111111111111111111111111100000000000 (
b10000000000100101011000000100011 "
b10000000000100101011000000100011 #
#4000
b1 !
b1 (
b101100011 "
b101100011 #
#5000
b1111111111111111111111111111111111111111111111111111111111111111 !
b1111111111111111111111111111111111111111111111111111111111111111 (
b11111110000000000000111111100011 "
b11111110000000000000111111100011 #
#6000
b11111111111 !
b11111111111 (
b1111110000000000001111111100011 "
b1111110000000000001111111100011 #
#7000
b1111111111111111111111111111111111111111111111111111100000000000 !
b1111111111111111111111111111111111111111111111111111100000000000 (
b10000000000000000000000001100011 "
b10000000000000000000000001100011 #
#8000
b0 !
b0 (
b1100010000000010110011 "
b1100010000000010110011 #
