Phase-1/multiplexer_tb.vcd
$date
	Sun Feb 22 14:44:16 2026
$end
$version
	Icarus Verilog
$end
$timescale
	1ps
$end
$scope module multiplexer_tb $end
$var wire 64 ! mux_out [63:0] $end
$var reg 64 " I1 [63:0] $end
$var reg 64 # I2 [63:0] $end
$var reg 1 $ S $end
$scope module uut $end
$var wire 64 % I1 [63:0] $end
$var wire 64 & I2 [63:0] $end
$var wire 1 $ S $end
$var wire 1 ' not_S $end
$var wire 64 ( temp2 [63:0] $end
$var wire 64 ) temp1 [63:0] $end
$var wire 64 * mux_out [63:0] $end
$scope begin genblk1[0] $end
$var parameter 2 + i $end
$upscope $end
$scope begin genblk1[1] $end
$var parameter 2 , i $end
$upscope $end
$scope begin genblk1[2] $end
$var parameter 3 - i $end
$upscope $end
$scope begin genblk1[3] $end
$var parameter 3 . i $end
$upscope $end
$scope begin genblk1[4] $end
$var parameter 4 / i $end
$upscope $end
$scope begin genblk1[5] $end
$var parameter 4 0 i $end
$upscope $end
$scope begin genblk1[6] $end
$var parameter 4 1 i $end
$upscope $end
$scope begin genblk1[7] $end
$var parameter 4 2 i $end
$upscope $end
$scope begin genblk1[8] $end
$var parameter 5 3 i $end
$upscope $end
$scope begin genblk1[9] $end
$var parameter 5 4 i $end
$upscope $end
$scope begin genblk1[10] $end
$var parameter 5 5 i $end
$upscope $end
$scope begin genblk1[11] $end
$var parameter 5 6 i $end
$upscope $end
$scope begin genblk1[12] $end
$var parameter 5 7 i $end
$upscope $end
$scope begin genblk1[13] $end
$var parameter 5 8 i $end
$upscope $end
$scope begin genblk1[14] $end
$var parameter 5 9 i $end
$upscope $end
$scope begin genblk1[15] $end
$var parameter 5 : i $end
$upscope $end
$scope begin genblk1[16] $end
$var parameter 6 ; i $end
$upscope $end
$scope begin genblk1[17] $end
$var parameter 6 < i $end
$upscope $end
$scope begin genblk1[18] $end
$var parameter 6 = i $end
$upscope $end
$scope begin genblk1[19] $end
$var parameter 6 > i $end
$upscope $end
$scope begin genblk1[20] $end
$var parameter 6 ? i $end
$upscope $end
$scope begin genblk1[21] $end
$var parameter 6 @ i $end
$upscope $end
$scope begin genblk1[22] $end
$var parameter 6 A i $end
$upscope $end
$scope begin genblk1[23] $end
$var parameter 6 B i $end
$upscope $end
$scope begin genblk1[24] $end
$var parameter 6 C i $end
$upscope $end
$scope begin genblk1[25] $end
$var parameter 6 D i $end
$upscope $end
$scope begin genblk1[26] $end
$var parameter 6 E i $end
$upscope $end
$scope begin genblk1[27] $end
$var parameter 6 F i $end
$upscope $end
$scope begin genblk1[28] $end
$var parameter 6 G i $end
$upscope $end
$scope begin genblk1[29] $end
$var parameter 6 H i $end
$upscope $end
$scope begin genblk1[30] $end
$var parameter 6 I i $end
$upscope $end
$scope begin genblk1[31] $end
$var parameter 6 J i $end
$upscope $end
$scope begin genblk1[32] $end
$var parameter 7 K i $end
$upscope $end
$scope begin genblk1[33] $end
$var parameter 7 L i $end
$upscope $end
$scope begin genblk1[34] $end
$var parameter 7 M i $end
$upscope $end
$scope begin genblk1[35] $end
$var parameter 7 N i $end
$upscope $end
$scope begin genblk1[36] $end
$var parameter 7 O i $end
$upscope $end
$scope begin genblk1[37] $end
$var parameter 7 P i $end
$upscope $end
$scope begin genblk1[38] $end
$var parameter 7 Q i $end
$upscope $end
$scope begin genblk1[39] $end
$var parameter 7 R i $end
$upscope $end
$scope begin genblk1[40] $end
$var parameter 7 S i $end
$upscope $end
$scope begin genblk1[41] $end
$var parameter 7 T i $end
$upscope $end
$scope begin genblk1[42] $end
$var parameter 7 U i $end
$upscope $end
$scope begin genblk1[43] $end
$var parameter 7 V i $end
$upscope $end
$scope begin genblk1[44] $end
$var parameter 7 W i $end
$upscope $end
$scope begin genblk1[45] $end
$var parameter 7 X i $end
$upscope $end
$scope begin genblk1[46] $end
$var parameter 7 Y i $end
$upscope $end
$scope begin genblk1[47] $end
$var parameter 7 Z i $end
$upscope $end
$scope begin genblk1[48] $end
$var parameter 7 [ i $end
$upscope $end
$scope begin genblk1[49] $end
$var parameter 7 \ i $end
$upscope $end
$scope begin genblk1[50] $end
$var parameter 7 ] i $end
$upscope $end
$scope begin genblk1[51] $end
$var parameter 7 ^ i $end
$upscope $end
$scope begin genblk1[52] $end
$var parameter 7 _ i $end
$upscope $end
$scope begin genblk1[53] $end
$var parameter 7 ` i $end
$upscope $end
$scope begin genblk1[54] $end
$var parameter 7 a i $end
$upscope $end
$scope begin genblk1[55] $end
$var parameter 7 b i $end
$upscope $end
$scope begin genblk1[56] $end
$var parameter 7 c i $end
$upscope $end
$scope begin genblk1[57] $end
$var parameter 7 d i $end
$upscope $end
$scope begin genblk1[58] $end
$var parameter 7 e i $end
$upscope $end
$scope begin genblk1[59] $end
$var parameter 7 f i $end
$upscope $end
$scope begin genblk1[60] $end
$var parameter 7 g i $end
$upscope $end
$scope begin genblk1[61] $end
$var parameter 7 h i $end
$upscope $end
$scope begin genblk1[62] $end
$var parameter 7 i i $end
$upscope $end
$scope begin genblk1[63] $end
$var parameter 7 j i $end
$upscope $end
$upscope $end
$scope task check $end
$var reg 64 k expected [63:0] $end
$upscope $end
$upscope $end
$enddefinitions $end
$comment Show the parameter values. $end
$dumpall
b111111 j
b111110 i
b111101 h
b111100 g
b111011 f
b111010 e
b111001 d
b111000 c
b110111 b
b110110 a
b110101 `
b110100 _
b110011 ^
b110010 ]
b110001 \
b110000 [
b101111 Z
b101110 Y
b101101 X
b101100 W
b101011 V
b101010 U
b101001 T
b101000 S
b100111 R
b100110 Q
b100101 P
b100100 O
b100011 N
b100010 M
b100001 L
b100000 K
b11111 J
b11110 I
b11101 H
b11100 G
b11011 F
b11010 E
b11001 D
b11000 C
b10111 B
b10110 A
b10101 @
b10100 ?
b10011 >
b10010 =
b10001 <
b10000 ;
b1111 :
b1110 9
b1101 8
b1100 7
b1011 6
b1010 5
b1001 4
b1000 3
b111 2
b110 1
b101 0
b100 /
b11 .
b10 -
b1 ,
b0 +
$end
#0
$dumpvars
b10101010 k
b10101010 *
b10101010 )
b0 (
1'
b10111011 &
b10101010 %
0$
b10111011 #
b10101010 "
b10101010 !
$end
#1000
b10111011 !
b10111011 *
b0 )
0'
b10111011 (
b10111011 k
1$
#2000
b0 !
b0 *
1'
b0 (
b0 k
0$
b0 #
b0 &
b0 "
b0 %
#3000
0'
1$
#4000
b1111111111111111111111111111111111111111111111111111111111111111 !
b1111111111111111111111111111111111111111111111111111111111111111 *
b1111111111111111111111111111111111111111111111111111111111111111 )
1'
b1111111111111111111111111111111111111111111111111111111111111111 k
0$
b1111111111111111111111111111111111111111111111111111111111111111 #
b1111111111111111111111111111111111111111111111111111111111111111 &
b1111111111111111111111111111111111111111111111111111111111111111 "
b1111111111111111111111111111111111111111111111111111111111111111 %
#5000
b0 )
0'
b1111111111111111111111111111111111111111111111111111111111111111 (
1$
#6000
b1010101010101010101010101010101010101010101010101010101010101010 !
b1010101010101010101010101010101010101010101010101010101010101010 *
b1010101010101010101010101010101010101010101010101010101010101010 )
1'
b0 (
b1010101010101010101010101010101010101010101010101010101010101010 k
0$
b101010101010101010101010101010101010101010101010101010101010101 #
b101010101010101010101010101010101010101010101010101010101010101 &
b1010101010101010101010101010101010101010101010101010101010101010 "
b1010101010101010101010101010101010101010101010101010101010101010 %
#7000
b101010101010101010101010101010101010101010101010101010101010101 !
b101010101010101010101010101010101010101010101010101010101010101 *
b0 )
0'
b101010101010101010101010101010101010101010101010101010101010101 (
b101010101010101010101010101010101010101010101010101010101010101 k
1$
#8000
b0 !
b0 *
b0 (
b0 k
b0 #
b0 &
b1111111111111111111111111111111111111111111111111111111111111111 "
b1111111111111111111111111111111111111111111111111111111111111111 %
#9000
b1111111111111111111111111111111111111111111111111111111111111111 !
b1111111111111111111111111111111111111111111111111111111111111111 *
b1111111111111111111111111111111111111111111111111111111111111111 )
1'
b1111111111111111111111111111111111111111111111111111111111111111 k
0$
